pe\interbank\automatizacion\rm\data\services\TestStep.class
pe\interbank\automatizacion\rm\data\services\SharedServices.class
pe\interbank\automatizacion\rm\data\utilities\Excel.class
pe\interbank\automatizacion\rm\data\testcase\CP_22.class
pe\interbank\automatizacion\rm\data\services\LoginHostServices.class
pe\interbank\automatizacion\rm\data\services\HostServices.class
pe\interbank\automatizacion\rm\data\utilities\ExtendReportsUtilities.class
