D:\HOST\Automatizacion\Vero\ActualizarCampoPais\ActualizarCampoPais\src\test\java\pe\interbank\automatizacion\rm\data\services\SharedServices.java
D:\HOST\Automatizacion\Vero\ActualizarCampoPais\ActualizarCampoPais\src\test\java\pe\interbank\automatizacion\rm\data\services\TestStep.java
D:\HOST\Automatizacion\Vero\ActualizarCampoPais\ActualizarCampoPais\src\test\java\pe\interbank\automatizacion\rm\data\utilities\ExtendReportsUtilities.java
D:\HOST\Automatizacion\Vero\ActualizarCampoPais\ActualizarCampoPais\src\test\java\pe\interbank\automatizacion\rm\data\testcase\CP_22.java
D:\HOST\Automatizacion\Vero\ActualizarCampoPais\ActualizarCampoPais\src\test\java\pe\interbank\automatizacion\rm\data\services\HostServices.java
D:\HOST\Automatizacion\Vero\ActualizarCampoPais\ActualizarCampoPais\src\test\java\pe\interbank\automatizacion\rm\data\services\LoginHostServices.java
D:\HOST\Automatizacion\Vero\ActualizarCampoPais\ActualizarCampoPais\src\test\java\pe\interbank\automatizacion\rm\data\utilities\Excel.java
